…
Some awards are zero amounts\! At least none are negative.

``` r
count(awards201617, `Amount Awarded`, sort = TRUE)
```

    ## # A tibble: 2,480 x 2
    ##    `Amount Awarded`     n
    ##               <dbl> <int>
    ##  1                0   109
    ##  2             3000    97
    ##  3            25000    39
    ##  4             1000    38
    ##  5             2000    38
    ##  6            24000    36
    ##  7            60000    35
    ##  8            18000    23
    ##  9            45000    23
    ## 10            70000    15
    ## # ... with 2,470 more rows
…
