…
    ## # A tibble: 4 x 1
    ##   method                         
    ##   <chr>                          
    ## 1 Formula                        
    ## 2 General Grants - Competed      
    ## 3 General Grants - Criteria Based
    ## 4 General Grants - Un-competed

`Recipient Sector` is cardinality=‘n’

``` r
distinct(scheme201617, `Recipient Sector`)
```

    ## # A tibble: 32 x 1
    ##    `Recipient Sector`                                                     
    ##    <chr>                                                                  
    ##  1 Civil Society                                                          
    ##  2 Local Government                                                       
    ##  3 Private                                                                
    ##  4 Central Government                                                     
    ##  5 Civil Society; Private                                                 
    ##  6 Local Government; Civil Society; Public Organisations; Private         
    ##  7 Local Government; Private                                              
    ##  8 Public Organisations                                                   
    ##  9 Local Government; Civil Society; Public Organisations                  
    ## 10 Central Government; Local Government; Civil Society; Public Organisati…
    ## # ... with 22 more rows
…
    ## [1] "To reduce global poverty in support of the UK_s national interest. Further details on all UK overseas development assistance is available on Development Tracker at https://devtracker.dfid.gov.uk/"
    ## [2] NA                                                                                                                                                                                                   
    ## [3] "."                                                                                                                                                                                                  
    ## [4] "FCO Policy Objectives"                                                                                                                                                                              
    ## [5] "TBC Q1 2017/18"                                                                                                                                                                                     
    ## [6] "n/a"

The unique ID is the `Grant Programme:Code`

``` r
count(scheme201617, `Grant Programme:Code`, sort = TRUE)
```

    ## # A tibble: 1,207 x 2
    ##    `Grant Programme:Code`     n
    ##    <chr>                  <int>
    ##  1 SCH-000000005              1
    ##  2 SCH-000000024              1
    ##  3 SCH-000000026              1
    ##  4 SCH-000000027              1
    ##  5 SCH-000000032              1
    ##  6 SCH-000000048              1
    ##  7 SCH-000000052              1
    ##  8 SCH-000000054              1
    ##  9 SCH-000000117              1
    ## 10 SCH-000000122              1
    ## # ... with 1,197 more rows

Some values are zero

``` r
count(scheme201617, `Value per year`, sort = TRUE)
```

    ## # A tibble: 954 x 2
    ##    `Value per year`     n
    ##               <dbl> <int>
    ##  1            60000    27
    ##  2           500000    16
    ##  3          1000000    16
    ##  4            30000    15
    ##  5          2000000    12
    ##  6          5000000    11
    ##  7          3000000     9
    ##  8         16500000     8
    ##  9                0     7
    ## 10           100000     6
    ## # ... with 944 more rows

Some values are negative, some are not really grants (Crossrail?\!)

``` r
count(scheme201617, `Value per year`)
```

    ## # A tibble: 954 x 2
    ##    `Value per year`     n
    ##               <dbl> <int>
    ##  1      -2442056000     1
    ##  2      -  21462000     1
    ##  3      -  16400000     1
    ##  4      -   6863000     1
    ##  5      -    388000     1
    ##  6      -    116037     1
    ##  7      -     30000     1
    ##  8                0     7
    ##  9              500     1
    ## 10             1000     1
    ## # ... with 944 more rows

``` r
arrange(scheme201617, `Value per year`) %>%
  select(1:3, 5)
```

    ## # A tibble: 1,207 x 4
    ##    `Funding Org:Name` `Grant Programm… `Grant Programme:… `Value per year`
    ##    <chr>              <chr>            <chr>                         <dbl>
    ##  1 CLG Local Governm… SCH-000000799    X085A455-BRR Tari…      -2442056000
    ##  2 Department for Co… SCH-000004053    HCA SINGLE LAND P…      -  21462000
    ##  3 Department for Co… SCH-000004044    HCA PROPERTY & RE…      -  16400000
    ##  4 CLG Local Governm… SCH-000000601    X085A650 BUSINESS…      -   6863000
    ##  5 Department for Wo… SCH-000003361    New Enterprise Al…      -    388000
    ##  6 Department for Wo… SCH-000003440    HMCTS UC rollout …      -    116037
    ##  7 Department for Co… SCH-000000550    X085A518-RIGHT TO…      -     30000
    ##  8 Department for Bu… SCH-000003881    RCUK - Scheme 100…                0
    ##  9 Department for Tr… SCH-000003370    Crossrail 16/17                   0
    ## 10 Department for Tr… SCH-000003373    Thameslink (Non B…                0
    ## # ... with 1,197 more rows

``` r
count(scheme201617, `Value per year`) %>%
  arrange(-`Value per year`)
```

    ## # A tibble: 954 x 2
    ##    `Value per year`     n
    ##               <dbl> <int>
    ##  1      44984458000     1
    ##  2       7205350000     1
    ##  3       6646263642     1
    ##  4       5212000000     1
    ##  5       4111978225     1
    ##  6       2802222016     1
    ##  7       2442056000     1
    ##  8       1629800000     1
    ##  9       1578000259     1
    ## 10       1461855000     1
    ## # ... with 944 more rows
…
